{
  "annotations": {
    "list": [
      {
        "builtIn": 1,
        "datasource": "-- Grafana --",
        "enable": true,
        "hide": true,
        "iconColor": "rgba(0, 211, 255, 1)",
        "name": "Annotations & Alerts",
        "type": "dashboard"
      }
    ]
  },
  "editable": true,
  "gnetId": null,
  "graphTooltip": 0,
  "id": 2,
  "links": [],
  "panels": [
    {
      "datasource": null,
      "fieldConfig": {
        "defaults": {
          "color": {
            "mode": "palette-classic"
          },
          "custom": {},
          "displayName": "inicio",
          "mappings": [],
          "thresholds": {
            "mode": "absolute",
            "steps": [
              {
                "color": "green",
                "value": null
              },
              {
                "color": "red",
                "value": 80
              }
            ]
          },
          "unit": "ms"
        },
        "overrides": []
      },
      "gridPos": {
        "h": 8,
        "w": 12,
        "x": 0,
        "y": 0
      },
      "id": 4,
      "options": {
        "displayMode": "lcd",
        "orientation": "horizontal",
        "reduceOptions": {
          "calcs": [
            "mean"
          ],
          "fields": "",
          "values": true
        },
        "showUnfilled": true
      },
      "pluginVersion": "7.3.6",
      "targets": [
        {
          "groupBy": [],
          "measurement": "trace",
          "orderByTime": "ASC",
          "policy": "default",
          "refId": "A",
          "resultFormat": "table",
          "select": [
            [
              {
                "params": [
                  "tiempo"
                ],
                "type": "field"
              }
            ]
          ],
          "tags": []
        }
      ],
      "timeFrom": null,
      "timeShift": null,
      "title": "Tiempos",
      "type": "bargauge"
    },
    {
      "circleMaxSize": "10",
      "circleMinSize": 2,
      "colors": [
        "#73BF69",
        "#F2495C"
      ],
      "datasource": null,
      "decimals": 0,
      "description": "",
      "esMetric": "Count",
      "fieldConfig": {
        "defaults": {
          "custom": {}
        },
        "overrides": []
      },
      "gridPos": {
        "h": 8,
        "w": 12,
        "x": 12,
        "y": 0
      },
      "hideEmpty": false,
      "hideZero": false,
      "id": 2,
      "initialZoom": "14",
      "locationData": "table",
      "mapCenter": "Last GeoHash",
      "mapCenterLatitude": -3.2660573,
      "mapCenterLongitude": -79.9581342,
      "maxDataPoints": 1,
      "mouseWheelZoom": false,
      "pluginVersion": "7.3.6",
      "showLegend": true,
      "stickyLabels": true,
      "tableQueryOptions": {
        "geohashField": "geohash",
        "labelField": "location",
        "latitudeField": "lat",
        "longitudeField": "lng",
        "metricField": "tiempo",
        "queryType": "coordinates"
      },
      "targets": [
        {
          "groupBy": [],
          "hide": false,
          "limit": "",
          "measurement": "geo",
          "orderByTime": "ASC",
          "policy": "default",
          "query": "SELECT \"device\", \"lat\", \"lng\" FROM \"geo\" WHERE $timeFilter GROUP BY \"device\"",
          "queryType": "randomWalk",
          "rawQuery": false,
          "refId": "A",
          "resultFormat": "table",
          "select": [
            [
              {
                "params": [
                  "device"
                ],
                "type": "field"
              }
            ],
            [
              {
                "params": [
                  "lat"
                ],
                "type": "field"
              }
            ],
            [
              {
                "params": [
                  "lng"
                ],
                "type": "field"
              }
            ],
            [
              {
                "params": [
                  "location"
                ],
                "type": "field"
              }
            ],
            [
              {
                "params": [
                  "tiempo"
                ],
                "type": "field"
              }
            ]
          ],
          "tags": []
        }
      ],
      "thresholds": "20000000",
      "timeFrom": null,
      "timeShift": null,
      "title": "Puntos visitados",
      "type": "grafana-worldmap-panel",
      "unitPlural": "",
      "unitSingle": "",
      "valueName": "total"
    }
  ],
  "refresh": "5s",
  "schemaVersion": 26,
  "style": "dark",
  "tags": [],
  "templating": {
    "list": []
  },
  "time": {
    "from": "now-6h",
    "to": "now"
  },
  "timepicker": {},
  "timezone": "",
  "title": "Control Trace",
  "uid": "KrloYE-Mk",
  "version": 22
}